{
  "version": "14.1.2",
  "vulnerabilities": [
      {
          "id": "0e9148e513ed08ee1973cc149e939ef260cbfa1d7d2242760377c5749b953ddd",
          "category": "coverage_fuzzing",
          "name": "name",
          "message": "Heap-buffer-overflow\nREAD 1",
          "cve": "",
          "severity": "Medium",
          "scanner": {
              "id": "libfuzzer",
              "name": "libfuzzer"
          },
          "location": {
              "crash_address": "0x603000006026",
              "crash_type": "Heap-buffer-overflow\nREAD 1",
              "crash_state": "test_string\n\n",
              "stacktrace_snippet": "INFO: Seed: 2177069747\nINFO: Loaded 1 modules   (1 inline 8-bit counters): 1 [0x78dfe0, 0x78dfe1), \nINFO: Loaded 1 PC tables (1 PCs): 1 [0x56a668,0x56a678), \nINFO:        0 files found in corpus\nINFO: -max_len is not provided; libFuzzer will not generate inputs larger than 4096 bytes\nINFO: A corpus is not provided, starting from an empty corpus\n#2\tINITED cov: 1 ft: 1 corp: 1/1b exec/s: 0 rss: 50Mb\n=================================================================\n==4681==ERROR: AddressSanitizer: heap-buffer-overflow on address 0x603000006026 at pc 0x00000054efca bp 0x7ffdb45b2440 sp 0x7ffdb45b2438\nREAD of size 1 at 0x603000006026 thread T0\n    #0 0x54efc9 in test_string(char const*, unsigned long) /builds/gitlab-org/security-products/demos/coverage-fuzzing/c-cpp-fuzzing-example/src/test_string.cpp:15:17\n    #1 0x54ef00 in LLVMFuzzerTestOneInput /builds/gitlab-org/security-products/demos/coverage-fuzzing/c-cpp-fuzzing-example/fuzz/fuzz_test_string.cpp:13:5\n    #2 0x42ee57 in fuzzer::Fuzzer::ExecuteCallback(unsigned char const*, unsigned long) (/builds/gitlab-org/security-products/demos/coverage-fuzzing/c-cpp-fuzzing-example/fuzzer+0x42ee57)\n    #3 0x4396c4 in fuzzer::Fuzzer::MutateAndTestOne() (/builds/gitlab-org/security-products/demos/coverage-fuzzing/c-cpp-fuzzing-example/fuzzer+0x4396c4)\n    #4 0x43ad2f in fuzzer::Fuzzer::Loop(std::vector\u003cstd::__cxx11::basic_string\u003cchar, std::char_traits\u003cchar\u003e, std::allocator\u003cchar\u003e \u003e, fuzzer::fuzzer_allocator\u003cstd::__cxx11::basic_string\u003cchar, std::char_traits\u003cchar\u003e, std::allocator\u003cchar\u003e \u003e \u003e \u003e const\u0026) (/builds/gitlab-org/security-products/demos/coverage-fuzzing/c-cpp-fuzzing-example/fuzzer+0x43ad2f)\n    #5 0x42a0ec in fuzzer::FuzzerDriver(int*, char***, int (*)(unsigned char const*, unsigned long)) (/builds/gitlab-org/security-products/demos/coverage-fuzzing/c-cpp-fuzzing-example/fuzzer+0x42a0ec)\n    #6 0x41cfb2 in main (/builds/gitlab-org/security-products/demos/coverage-fuzzing/c-cpp-fuzzing-example/fuzzer+0x41cfb2)\n    #7 0x7f998bf4dbf6 in __libc_start_main (/lib/x86_64-linux-gnu/libc.so.6+0x21bf6)\n    #8 0x41d029 in _start (/builds/gitlab-org/security-products/demos/coverage-fuzzing/c-cpp-fuzzing-example/fuzzer+0x41d029)\n\n0x603000006026 is located 0 bytes to the right of 22-byte region [0x603000006010,0x603000006026)\nallocated by thread T0 here:\n    #0 0x54acb0 in operator new[](unsigned long) (/builds/gitlab-org/security-products/demos/coverage-fuzzing/c-cpp-fuzzing-example/fuzzer+0x54acb0)\n    #1 0x42ed6e in fuzzer::Fuzzer::ExecuteCallback(unsigned char const*, unsigned long) (/builds/gitlab-org/security-products/demos/coverage-fuzzing/c-cpp-fuzzing-example/fuzzer+0x42ed6e)\n    #2 0x4396c4 in fuzzer::Fuzzer::MutateAndTestOne() (/builds/gitlab-org/security-products/demos/coverage-fuzzing/c-cpp-fuzzing-example/fuzzer+0x4396c4)\n    #3 0x43ad2f in fuzzer::Fuzzer::Loop(std::vector\u003cstd::__cxx11::basic_string\u003cchar, std::char_traits\u003cchar\u003e, std::allocator\u003cchar\u003e \u003e, fuzzer::fuzzer_allocator\u003cstd::__cxx11::basic_string\u003cchar, std::char_traits\u003cchar\u003e, std::allocator\u003cchar\u003e \u003e \u003e \u003e const\u0026) (/builds/gitlab-org/security-products/demos/coverage-fuzzing/c-cpp-fuzzing-example/fuzzer+0x43ad2f)\n    #4 0x42a0ec in fuzzer::FuzzerDriver(int*, char***, int (*)(unsigned char const*, unsigned long)) (/builds/gitlab-org/security-products/demos/coverage-fuzzing/c-cpp-fuzzing-example/fuzzer+0x42a0ec)\n    #5 0x41cfb2 in main (/builds/gitlab-org/security-products/demos/coverage-fuzzing/c-cpp-fuzzing-example/fuzzer+0x41cfb2)\n    #6 0x7f998bf4dbf6 in __libc_start_main (/lib/x86_64-linux-gnu/libc.so.6+0x21bf6)\n\nSUMMARY: AddressSanitizer: heap-buffer-overflow /builds/gitlab-org/security-products/demos/coverage-fuzzing/c-cpp-fuzzing-example/src/test_string.cpp:15:17 in test_string(char const*, unsigned long)\nShadow bytes around the buggy address:\n  0x0c067fff8bb0: fd fa fa fa fd fd fd fa fa fa fd fd fd fd fa fa\n  0x0c067fff8bc0: fd fd fd fd fa fa fd fd fd fd fa fa fd fd fd fa\n  0x0c067fff8bd0: fa fa fd fd fd fa fa fa fd fd fd fa fa fa fd fd\n  0x0c067fff8be0: fd fa fa fa fd fd fd fa fa fa fd fd fd fd fa fa\n  0x0c067fff8bf0: fd fd fd fd fa fa fd fd fd fd fa fa fd fd fd fd\n=\u003e0x0c067fff8c00: fa fa 00 00[06]fa fa fa fa fa fa fa fa fa fa fa\n  0x0c067fff8c10: fa fa fa fa fa fa fa fa fa fa fa fa fa fa fa fa\n  0x0c067fff8c20: fa fa fa fa fa fa fa fa fa fa fa fa fa fa fa fa\n  0x0c067fff8c30: fa fa fa fa fa fa fa fa fa fa fa fa fa fa fa fa\n  0x0c067fff8c40: fa fa fa fa fa fa fa fa fa fa fa fa fa fa fa fa\n  0x0c067fff8c50: fa fa fa fa fa fa fa fa fa fa fa fa fa fa fa fa\nShadow byte legend (one shadow byte represents 8 application bytes):\n  Addressable:           00\n  Partially addressable: 01 02 03 04 05 06 07 \n  Heap left redzone:       fa\n  Freed heap region:       fd\n  Stack left redzone:      f1\n  Stack mid redzone:       f2\n  Stack right redzone:     f3\n  Stack after return:      f5\n  Stack use after scope:   f8\n  Global redzone:          f9\n  Global init order:       f6\n  Poisoned by user:        f7\n  Container overflow:      fc\n  Array cookie:            ac\n  Intra object redzone:    bb\n  ASan internal:           fe\n  Left alloca redzone:     ca\n  Right alloca redzone:    cb\n==4681==ABORTING\nMS: 3 ChangeBinInt-InsertByte-CMP- DE: \"FUZZING IS IMPORTANT\"-; base unit: adc83b19e793491b1c6ea0fd8b46cd9f32e592fc\n0x46,0x55,0x5a,0x5a,0x49,0x4e,0x47,0x20,0x49,0x53,0x20,0x49,0x4d,0x50,0x4f,0x52,0x54,0x41,0x4e,0x54,0xf7,0x54,\nFUZZING IS IMPORTANT\\xf7T\nartifact_prefix='./crashes/'; Test unit written to ./crashes/crash-c36625499c7b28ce026e985aa09a8fa797d70204\nBase64: RlVaWklORyBJUyBJTVBPUlRBTlT3VA==\nstat::number_of_executed_units: 6890\nstat::average_exec_per_sec:     0\nstat::new_units_added:          0\nstat::slowest_unit_time_sec:    0\nstat::peak_rss_mb:              52\n"
          },
          "identifiers": [
              {
                  "type": "cwe",
                  "name": "Heap-buffer-overflow\nREAD 1",
                  "value": "Heap-buffer-overflow\nREAD 1"
              }
          ]
      }
  ],
  "remediations": [],
  "scan": {
      "scanner": {
          "id": "libfuzzer",
          "name": "libfuzzer",
          "url": "https://docs.gitlab.com/ee/user/application_security/coverage_fuzzing",
          "vendor": {
              "name": "GitLab"
          },
          "version": "v2.0.46"
      },
      "type": "coverage_fuzzing",
      "start_time": "2020-11-10T09:02:02",
      "end_time": "2020-11-10T09:02:04",
      "status": "success"
  }
}